BIO-463: CosMx Spatial Transcriptomics — Mouse Brain Analysis
…
markers <- FindAllMarkers(GE,
                          only.pos       = TRUE,
                          min.pct        = 0.25,
                          logfc.threshold = 0.5,
                          test.use       = "wilcox")

# Top 5 markers per cluster
top5 <- markers %>%
  group_by(cluster) %>%
  slice_max(order_by = avg_log2FC, n = 5)

print(top5)

# A tibble: 135 × 7
# Groups:   cluster [27]
   p_val avg_log2FC pct.1 pct.2 p_val_adj cluster gene  
   <dbl>      <dbl> <dbl> <dbl>     <dbl> <fct>   <chr> 
 1     0       5.47 0.998 0.334         0 0       Plp1  
 2     0       5.12 0.963 0.157         0 0       Mag   
 3     0       5.08 0.932 0.123         0 0       Mog   
 4     0       4.47 0.889 0.127         0 0       Ugt8a 
 5     0       4.18 0.876 0.163         0 0       Aspa  
 6     0       2.27 0.923 0.47          0 1       Mef2c 
 7     0       2.22 0.974 0.509         0 1       Nrgn  
 8     0       1.99 0.547 0.216         0 1       Adra1d
 9     0       1.88 0.932 0.46          0 1       Cck   
10     0       1.86 0.881 0.501         0 1       Kalrn 
# ℹ 125 more rows
…
